before_mounth10/hw1and2/synchronous_ctr/structural/Tdff.vcd
$date
    Oct 16, 2019  04:09:38
$end
$version
    TOOL:	ncsim	15.20-s039
$end
$timescale
    1 ps
$end

$scope module Tdff $end
$var reg       1 !    d  $end
$var reg       1 "    clk  $end
$var reg       1 #    clear  $end
$var wire      1 $    q  $end
$var integer  32 %    i  $end

$scope module dra1 $end
$var wire      1 &    d  $end
$var wire      1 '    clk  $end
$var wire      1 (    clear  $end
$var wire      1 $    q  $end
$var wire      1 )    pc  $end
$var wire      1 *    ao  $end
$var wire      1 +    an  $end

$scope module retf $end
$var wire      1 &    d  $end
$var wire      1 '    clk  $end
$var wire      1 )    q  $end
$var wire      1 ,    p  $end
$var wire      1 -    n  $end
$var wire      1 .    un  $end
$var wire      1 /    uc  $end
$var wire      1 0    nu  $end
$var wire      1 1    nc  $end

$scope module sr1 $end
$var wire      1 &    d  $end
$var wire      1 -    e  $end
$var wire      1 ,    q  $end
$var wire      1 0    p  $end
$var wire      1 2    od  $end
$var wire      1 3    s  $end
$var wire      1 4    r  $end

$scope module sr1 $end
$var wire      1 4    R  $end
$var wire      1 3    S  $end
$var wire      1 ,    Q  $end
$var wire      1 0    Qbar  $end
$upscope $end

$upscope $end


$scope module sr2 $end
$var wire      1 ,    d  $end
$var wire      1 '    e  $end
$var wire      1 )    q  $end
$var wire      1 1    p  $end
$var wire      1 5    od  $end
$var wire      1 6    s  $end
$var wire      1 7    r  $end

$scope module sr1 $end
$var wire      1 7    R  $end
$var wire      1 6    S  $end
$var wire      1 )    Q  $end
$var wire      1 1    Qbar  $end
$upscope $end

$upscope $end

$upscope $end

$upscope $end

$upscope $end

$enddefinitions $end
$dumpvars
0!
0"
0#
x$
bx %
0&
0'
0(
x)
x*
1+
0,
1-
z.
z/
10
x1
12
03
14
15
06
07
$end
#10000
1"
1'
0-
17
0)
04
11
0*
0$
#15000
1!
1&
02
#20000
0"
0'
1-
07
13
00
1,
05
#30000
1"
1'
0-
16
01
03
1)
1*
1$
#31000
0!
0&
12
#40000
0"
0'
1-
06
14
0,
10
15
#41000
1!
1&
13
02
04
00
1,
05
#44000
0!
0&
03
12
14
0,
10
15
#49000
1!
1&
13
02
04
00
1,
05
#50000
1"
1'
0-
16
03
#53000
1#
1(
0+
0$
#60000
0"
0'
1-
06
13
#63000
0#
0(
1+
1$
#70000
1"
1'
0-
16
03
