hw1and2/adder/fourBitAdder/ncverilog.log
ncverilog: 15.20-s039: (c) Copyright 1995-2017 Cadence Design Systems, Inc.
TOOL:	ncverilog	15.20-s039: Started on Oct 07, 2019 at 23:07:09 CST
ncverilog
	+access+rwc
	test_bench_4bit.v
Loading snapshot worklib.test_bench_4bit:v .................... Done
ncsim> source /usr/cad/cadence/INCISIV/cur/tools/inca/files/ncsimrc
ncsim> run
=========This is a test bench of 4 bit ADDER=========
                   0 || a=  0 | b=  0 | c= 0 | s=  0 | OC= 0 | (ERR:          1)
                   5 || a=  0 | b=  1 | c= 0 | s=  1 | OC= 0 | (ERR:          1)
                  10 || a=  0 | b=  2 | c= 0 | s=  2 | OC= 0 | (ERR:          1)
                  15 || a=  0 | b=  3 | c= 0 | s=  3 | OC= 0 | (ERR:          1)
                  20 || a=  0 | b=  4 | c= 0 | s=  4 | OC= 0 | (ERR:          1)
                  25 || a=  0 | b=  5 | c= 0 | s=  5 | OC= 0 | (ERR:          1)
                  30 || a=  0 | b=  6 | c= 0 | s=  6 | OC= 0 | (ERR:          1)
                  35 || a=  0 | b=  7 | c= 0 | s=  7 | OC= 0 | (ERR:          1)
                  40 || a=  0 | b=  8 | c= 0 | s=  8 | OC= 0 | (ERR:          1)
                  45 || a=  0 | b=  9 | c= 0 | s=  9 | OC= 0 | (ERR:          1)
                  50 || a=  0 | b= 10 | c= 0 | s= 10 | OC= 0 | (ERR:          1)
                  55 || a=  0 | b= 11 | c= 0 | s= 11 | OC= 0 | (ERR:          1)
                  60 || a=  0 | b= 12 | c= 0 | s= 12 | OC= 0 | (ERR:          1)
                  65 || a=  0 | b= 13 | c= 0 | s= 13 | OC= 0 | (ERR:          1)
                  70 || a=  0 | b= 14 | c= 0 | s= 14 | OC= 0 | (ERR:          1)
                  75 || a=  0 | b= 15 | c= 0 | s= 15 | OC= 0 | (ERR:          1)
                  80 || a=  1 | b=  0 | c= 0 | s=  1 | OC= 0 | (ERR:          1)
                  85 || a=  1 | b=  1 | c= 0 | s=  2 | OC= 0 | (ERR:          1)
                  90 || a=  1 | b=  2 | c= 0 | s=  3 | OC= 0 | (ERR:          1)
                  95 || a=  1 | b=  3 | c= 0 | s=  4 | OC= 0 | (ERR:          1)
                 100 || a=  1 | b=  4 | c= 0 | s=  5 | OC= 0 | (ERR:          1)
                 105 || a=  1 | b=  5 | c= 0 | s=  6 | OC= 0 | (ERR:          1)
                 110 || a=  1 | b=  6 | c= 0 | s=  7 | OC= 0 | (ERR:          1)
                 115 || a=  1 | b=  7 | c= 0 | s=  8 | OC= 0 | (ERR:          1)
                 120 || a=  1 | b=  8 | c= 0 | s=  9 | OC= 0 | (ERR:          1)
                 125 || a=  1 | b=  9 | c= 0 | s= 10 | OC= 0 | (ERR:          1)
                 130 || a=  1 | b= 10 | c= 0 | s= 11 | OC= 0 | (ERR:          1)
                 135 || a=  1 | b= 11 | c= 0 | s= 12 | OC= 0 | (ERR:          1)
                 140 || a=  1 | b= 12 | c= 0 | s= 13 | OC= 0 | (ERR:          1)
                 145 || a=  1 | b= 13 | c= 0 | s= 14 | OC= 0 | (ERR:          1)
                 150 || a=  1 | b= 14 | c= 0 | s= 15 | OC= 0 | (ERR:          1)
                 155 || a=  1 | b= 15 | c= 0 | s=  0 | OC= 1 | (ERR:          1)
                 160 || a=  2 | b=  0 | c= 0 | s=  2 | OC= 0 | (ERR:          1)
                 165 || a=  2 | b=  1 | c= 0 | s=  3 | OC= 0 | (ERR:          1)
                 170 || a=  2 | b=  2 | c= 0 | s=  4 | OC= 0 | (ERR:          1)
                 175 || a=  2 | b=  3 | c= 0 | s=  5 | OC= 0 | (ERR:          1)
                 180 || a=  2 | b=  4 | c= 0 | s=  6 | OC= 0 | (ERR:          1)
                 185 || a=  2 | b=  5 | c= 0 | s=  7 | OC= 0 | (ERR:          1)
                 190 || a=  2 | b=  6 | c= 0 | s=  8 | OC= 0 | (ERR:          1)
                 195 || a=  2 | b=  7 | c= 0 | s=  9 | OC= 0 | (ERR:          1)
                 200 || a=  2 | b=  8 | c= 0 | s= 10 | OC= 0 | (ERR:          1)
                 205 || a=  2 | b=  9 | c= 0 | s= 11 | OC= 0 | (ERR:          1)
                 210 || a=  2 | b= 10 | c= 0 | s= 12 | OC= 0 | (ERR:          1)
                 215 || a=  2 | b= 11 | c= 0 | s= 13 | OC= 0 | (ERR:          1)
                 220 || a=  2 | b= 12 | c= 0 | s= 14 | OC= 0 | (ERR:          1)
                 225 || a=  2 | b= 13 | c= 0 | s= 15 | OC= 0 | (ERR:          1)
                 230 || a=  2 | b= 14 | c= 0 | s=  0 | OC= 1 | (ERR:          1)
                 235 || a=  2 | b= 15 | c= 0 | s=  1 | OC= 1 | (ERR:          1)
                 240 || a=  3 | b=  0 | c= 0 | s=  3 | OC= 0 | (ERR:          1)
                 245 || a=  3 | b=  1 | c= 0 | s=  4 | OC= 0 | (ERR:          1)
                 250 || a=  3 | b=  2 | c= 0 | s=  5 | OC= 0 | (ERR:          1)
                 255 || a=  3 | b=  3 | c= 0 | s=  6 | OC= 0 | (ERR:          1)
                 260 || a=  3 | b=  4 | c= 0 | s=  7 | OC= 0 | (ERR:          1)
                 265 || a=  3 | b=  5 | c= 0 | s=  8 | OC= 0 | (ERR:          1)
                 270 || a=  3 | b=  6 | c= 0 | s=  9 | OC= 0 | (ERR:          1)
                 275 || a=  3 | b=  7 | c= 0 | s= 10 | OC= 0 | (ERR:          1)
                 280 || a=  3 | b=  8 | c= 0 | s= 11 | OC= 0 | (ERR:          1)
                 285 || a=  3 | b=  9 | c= 0 | s= 12 | OC= 0 | (ERR:          1)
                 290 || a=  3 | b= 10 | c= 0 | s= 13 | OC= 0 | (ERR:          1)
                 295 || a=  3 | b= 11 | c= 0 | s= 14 | OC= 0 | (ERR:          1)
                 300 || a=  3 | b= 12 | c= 0 | s= 15 | OC= 0 | (ERR:          1)
                 305 || a=  3 | b= 13 | c= 0 | s=  0 | OC= 1 | (ERR:          1)
                 310 || a=  3 | b= 14 | c= 0 | s=  1 | OC= 1 | (ERR:          1)
                 315 || a=  3 | b= 15 | c= 0 | s=  2 | OC= 1 | (ERR:          1)
                 320 || a=  4 | b=  0 | c= 0 | s=  4 | OC= 0 | (ERR:          1)
                 325 || a=  4 | b=  1 | c= 0 | s=  5 | OC= 0 | (ERR:          1)
                 330 || a=  4 | b=  2 | c= 0 | s=  6 | OC= 0 | (ERR:          1)
                 335 || a=  4 | b=  3 | c= 0 | s=  7 | OC= 0 | (ERR:          1)
                 340 || a=  4 | b=  4 | c= 0 | s=  8 | OC= 0 | (ERR:          1)
                 345 || a=  4 | b=  5 | c= 0 | s=  9 | OC= 0 | (ERR:          1)
                 350 || a=  4 | b=  6 | c= 0 | s= 10 | OC= 0 | (ERR:          1)
                 355 || a=  4 | b=  7 | c= 0 | s= 11 | OC= 0 | (ERR:          1)
                 360 || a=  4 | b=  8 | c= 0 | s= 12 | OC= 0 | (ERR:          1)
                 365 || a=  4 | b=  9 | c= 0 | s= 13 | OC= 0 | (ERR:          1)
                 370 || a=  4 | b= 10 | c= 0 | s= 14 | OC= 0 | (ERR:          1)
                 375 || a=  4 | b= 11 | c= 0 | s= 15 | OC= 0 | (ERR:          1)
                 380 || a=  4 | b= 12 | c= 0 | s=  0 | OC= 1 | (ERR:          1)
                 385 || a=  4 | b= 13 | c= 0 | s=  1 | OC= 1 | (ERR:          1)
                 390 || a=  4 | b= 14 | c= 0 | s=  2 | OC= 1 | (ERR:          1)
                 395 || a=  4 | b= 15 | c= 0 | s=  3 | OC= 1 | (ERR:          1)
                 400 || a=  5 | b=  0 | c= 0 | s=  5 | OC= 0 | (ERR:          1)
                 405 || a=  5 | b=  1 | c= 0 | s=  6 | OC= 0 | (ERR:          1)
                 410 || a=  5 | b=  2 | c= 0 | s=  7 | OC= 0 | (ERR:          1)
                 415 || a=  5 | b=  3 | c= 0 | s=  8 | OC= 0 | (ERR:          1)
                 420 || a=  5 | b=  4 | c= 0 | s=  9 | OC= 0 | (ERR:          1)
                 425 || a=  5 | b=  5 | c= 0 | s= 10 | OC= 0 | (ERR:          1)
                 430 || a=  5 | b=  6 | c= 0 | s= 11 | OC= 0 | (ERR:          1)
                 435 || a=  5 | b=  7 | c= 0 | s= 12 | OC= 0 | (ERR:          1)
                 440 || a=  5 | b=  8 | c= 0 | s= 13 | OC= 0 | (ERR:          1)
                 445 || a=  5 | b=  9 | c= 0 | s= 14 | OC= 0 | (ERR:          1)
                 450 || a=  5 | b= 10 | c= 0 | s= 15 | OC= 0 | (ERR:          1)
                 455 || a=  5 | b= 11 | c= 0 | s=  0 | OC= 1 | (ERR:          1)
                 460 || a=  5 | b= 12 | c= 0 | s=  1 | OC= 1 | (ERR:          1)
                 465 || a=  5 | b= 13 | c= 0 | s=  2 | OC= 1 | (ERR:          1)
                 470 || a=  5 | b= 14 | c= 0 | s=  3 | OC= 1 | (ERR:          1)
                 475 || a=  5 | b= 15 | c= 0 | s=  4 | OC= 1 | (ERR:          1)
                 480 || a=  6 | b=  0 | c= 0 | s=  6 | OC= 0 | (ERR:          1)
                 485 || a=  6 | b=  1 | c= 0 | s=  7 | OC= 0 | (ERR:          1)
                 490 || a=  6 | b=  2 | c= 0 | s=  8 | OC= 0 | (ERR:          1)
                 495 || a=  6 | b=  3 | c= 0 | s=  9 | OC= 0 | (ERR:          1)
                 500 || a=  6 | b=  4 | c= 0 | s= 10 | OC= 0 | (ERR:          1)
                 505 || a=  6 | b=  5 | c= 0 | s= 11 | OC= 0 | (ERR:          1)
                 510 || a=  6 | b=  6 | c= 0 | s= 12 | OC= 0 | (ERR:          1)
                 515 || a=  6 | b=  7 | c= 0 | s= 13 | OC= 0 | (ERR:          1)
                 520 || a=  6 | b=  8 | c= 0 | s= 14 | OC= 0 | (ERR:          1)
                 525 || a=  6 | b=  9 | c= 0 | s= 15 | OC= 0 | (ERR:          1)
                 530 || a=  6 | b= 10 | c= 0 | s=  0 | OC= 1 | (ERR:          1)
                 535 || a=  6 | b= 11 | c= 0 | s=  1 | OC= 1 | (ERR:          1)
                 540 || a=  6 | b= 12 | c= 0 | s=  2 | OC= 1 | (ERR:          1)
                 545 || a=  6 | b= 13 | c= 0 | s=  3 | OC= 1 | (ERR:          1)
                 550 || a=  6 | b= 14 | c= 0 | s=  4 | OC= 1 | (ERR:          1)
                 555 || a=  6 | b= 15 | c= 0 | s=  5 | OC= 1 | (ERR:          1)
                 560 || a=  7 | b=  0 | c= 0 | s=  7 | OC= 0 | (ERR:          1)
                 565 || a=  7 | b=  1 | c= 0 | s=  8 | OC= 0 | (ERR:          1)
                 570 || a=  7 | b=  2 | c= 0 | s=  9 | OC= 0 | (ERR:          1)
                 575 || a=  7 | b=  3 | c= 0 | s= 10 | OC= 0 | (ERR:          1)
                 580 || a=  7 | b=  4 | c= 0 | s= 11 | OC= 0 | (ERR:          1)
                 585 || a=  7 | b=  5 | c= 0 | s= 12 | OC= 0 | (ERR:          1)
                 590 || a=  7 | b=  6 | c= 0 | s= 13 | OC= 0 | (ERR:          1)
                 595 || a=  7 | b=  7 | c= 0 | s= 14 | OC= 0 | (ERR:          1)
                 600 || a=  7 | b=  8 | c= 0 | s= 15 | OC= 0 | (ERR:          1)
                 605 || a=  7 | b=  9 | c= 0 | s=  0 | OC= 1 | (ERR:          1)
                 610 || a=  7 | b= 10 | c= 0 | s=  1 | OC= 1 | (ERR:          1)
                 615 || a=  7 | b= 11 | c= 0 | s=  2 | OC= 1 | (ERR:          1)
                 620 || a=  7 | b= 12 | c= 0 | s=  3 | OC= 1 | (ERR:          1)
                 625 || a=  7 | b= 13 | c= 0 | s=  4 | OC= 1 | (ERR:          1)
                 630 || a=  7 | b= 14 | c= 0 | s=  5 | OC= 1 | (ERR:          1)
                 635 || a=  7 | b= 15 | c= 0 | s=  6 | OC= 1 | (ERR:          1)
                 640 || a=  8 | b=  0 | c= 0 | s=  8 | OC= 0 | (ERR:          1)
                 645 || a=  8 | b=  1 | c= 0 | s=  9 | OC= 0 | (ERR:          1)
                 650 || a=  8 | b=  2 | c= 0 | s= 10 | OC= 0 | (ERR:          1)
                 655 || a=  8 | b=  3 | c= 0 | s= 11 | OC= 0 | (ERR:          1)
                 660 || a=  8 | b=  4 | c= 0 | s= 12 | OC= 0 | (ERR:          1)
                 665 || a=  8 | b=  5 | c= 0 | s= 13 | OC= 0 | (ERR:          1)
                 670 || a=  8 | b=  6 | c= 0 | s= 14 | OC= 0 | (ERR:          1)
                 675 || a=  8 | b=  7 | c= 0 | s= 15 | OC= 0 | (ERR:          1)
                 680 || a=  8 | b=  8 | c= 0 | s=  0 | OC= 1 | (ERR:          1)
                 685 || a=  8 | b=  9 | c= 0 | s=  1 | OC= 1 | (ERR:          1)
                 690 || a=  8 | b= 10 | c= 0 | s=  2 | OC= 1 | (ERR:          1)
                 695 || a=  8 | b= 11 | c= 0 | s=  3 | OC= 1 | (ERR:          1)
                 700 || a=  8 | b= 12 | c= 0 | s=  4 | OC= 1 | (ERR:          1)
                 705 || a=  8 | b= 13 | c= 0 | s=  5 | OC= 1 | (ERR:          1)
                 710 || a=  8 | b= 14 | c= 0 | s=  6 | OC= 1 | (ERR:          1)
                 715 || a=  8 | b= 15 | c= 0 | s=  7 | OC= 1 | (ERR:          1)
                 720 || a=  9 | b=  0 | c= 0 | s=  9 | OC= 0 | (ERR:          1)
                 725 || a=  9 | b=  1 | c= 0 | s= 10 | OC= 0 | (ERR:          1)
                 730 || a=  9 | b=  2 | c= 0 | s= 11 | OC= 0 | (ERR:          1)
                 735 || a=  9 | b=  3 | c= 0 | s= 12 | OC= 0 | (ERR:          1)
                 740 || a=  9 | b=  4 | c= 0 | s= 13 | OC= 0 | (ERR:          1)
                 745 || a=  9 | b=  5 | c= 0 | s= 14 | OC= 0 | (ERR:          1)
                 750 || a=  9 | b=  6 | c= 0 | s= 15 | OC= 0 | (ERR:          1)
                 755 || a=  9 | b=  7 | c= 0 | s=  0 | OC= 1 | (ERR:          1)
                 760 || a=  9 | b=  8 | c= 0 | s=  1 | OC= 1 | (ERR:          1)
                 765 || a=  9 | b=  9 | c= 0 | s=  2 | OC= 1 | (ERR:          1)
                 770 || a=  9 | b= 10 | c= 0 | s=  3 | OC= 1 | (ERR:          1)
                 775 || a=  9 | b= 11 | c= 0 | s=  4 | OC= 1 | (ERR:          1)
                 780 || a=  9 | b= 12 | c= 0 | s=  5 | OC= 1 | (ERR:          1)
                 785 || a=  9 | b= 13 | c= 0 | s=  6 | OC= 1 | (ERR:          1)
                 790 || a=  9 | b= 14 | c= 0 | s=  7 | OC= 1 | (ERR:          1)
                 795 || a=  9 | b= 15 | c= 0 | s=  8 | OC= 1 | (ERR:          1)
                 800 || a= 10 | b=  0 | c= 0 | s= 10 | OC= 0 | (ERR:          1)
                 805 || a= 10 | b=  1 | c= 0 | s= 11 | OC= 0 | (ERR:          1)
                 810 || a= 10 | b=  2 | c= 0 | s= 12 | OC= 0 | (ERR:          1)
                 815 || a= 10 | b=  3 | c= 0 | s= 13 | OC= 0 | (ERR:          1)
                 820 || a= 10 | b=  4 | c= 0 | s= 14 | OC= 0 | (ERR:          1)
                 825 || a= 10 | b=  5 | c= 0 | s= 15 | OC= 0 | (ERR:          1)
                 830 || a= 10 | b=  6 | c= 0 | s=  0 | OC= 1 | (ERR:          1)
                 835 || a= 10 | b=  7 | c= 0 | s=  1 | OC= 1 | (ERR:          1)
                 840 || a= 10 | b=  8 | c= 0 | s=  2 | OC= 1 | (ERR:          1)
                 845 || a= 10 | b=  9 | c= 0 | s=  3 | OC= 1 | (ERR:          1)
                 850 || a= 10 | b= 10 | c= 0 | s=  4 | OC= 1 | (ERR:          1)
                 855 || a= 10 | b= 11 | c= 0 | s=  5 | OC= 1 | (ERR:          1)
                 860 || a= 10 | b= 12 | c= 0 | s=  6 | OC= 1 | (ERR:          1)
                 865 || a= 10 | b= 13 | c= 0 | s=  7 | OC= 1 | (ERR:          1)
                 870 || a= 10 | b= 14 | c= 0 | s=  8 | OC= 1 | (ERR:          1)
                 875 || a= 10 | b= 15 | c= 0 | s=  9 | OC= 1 | (ERR:          1)
                 880 || a= 11 | b=  0 | c= 0 | s= 11 | OC= 0 | (ERR:          1)
                 885 || a= 11 | b=  1 | c= 0 | s= 12 | OC= 0 | (ERR:          1)
                 890 || a= 11 | b=  2 | c= 0 | s= 13 | OC= 0 | (ERR:          1)
                 895 || a= 11 | b=  3 | c= 0 | s= 14 | OC= 0 | (ERR:          1)
                 900 || a= 11 | b=  4 | c= 0 | s= 15 | OC= 0 | (ERR:          1)
                 905 || a= 11 | b=  5 | c= 0 | s=  0 | OC= 1 | (ERR:          1)
                 910 || a= 11 | b=  6 | c= 0 | s=  1 | OC= 1 | (ERR:          1)
                 915 || a= 11 | b=  7 | c= 0 | s=  2 | OC= 1 | (ERR:          1)
                 920 || a= 11 | b=  8 | c= 0 | s=  3 | OC= 1 | (ERR:          1)
                 925 || a= 11 | b=  9 | c= 0 | s=  4 | OC= 1 | (ERR:          1)
                 930 || a= 11 | b= 10 | c= 0 | s=  5 | OC= 1 | (ERR:          1)
                 935 || a= 11 | b= 11 | c= 0 | s=  6 | OC= 1 | (ERR:          1)
                 940 || a= 11 | b= 12 | c= 0 | s=  7 | OC= 1 | (ERR:          1)
                 945 || a= 11 | b= 13 | c= 0 | s=  8 | OC= 1 | (ERR:          1)
                 950 || a= 11 | b= 14 | c= 0 | s=  9 | OC= 1 | (ERR:          1)
                 955 || a= 11 | b= 15 | c= 0 | s= 10 | OC= 1 | (ERR:          1)
                 960 || a= 12 | b=  0 | c= 0 | s= 12 | OC= 0 | (ERR:          1)
                 965 || a= 12 | b=  1 | c= 0 | s= 13 | OC= 0 | (ERR:          1)
                 970 || a= 12 | b=  2 | c= 0 | s= 14 | OC= 0 | (ERR:          1)
                 975 || a= 12 | b=  3 | c= 0 | s= 15 | OC= 0 | (ERR:          1)
                 980 || a= 12 | b=  4 | c= 0 | s=  0 | OC= 1 | (ERR:          1)
                 985 || a= 12 | b=  5 | c= 0 | s=  1 | OC= 1 | (ERR:          1)
                 990 || a= 12 | b=  6 | c= 0 | s=  2 | OC= 1 | (ERR:          1)
                 995 || a= 12 | b=  7 | c= 0 | s=  3 | OC= 1 | (ERR:          1)
                1000 || a= 12 | b=  8 | c= 0 | s=  4 | OC= 1 | (ERR:          1)
                1005 || a= 12 | b=  9 | c= 0 | s=  5 | OC= 1 | (ERR:          1)
                1010 || a= 12 | b= 10 | c= 0 | s=  6 | OC= 1 | (ERR:          1)
                1015 || a= 12 | b= 11 | c= 0 | s=  7 | OC= 1 | (ERR:          1)
                1020 || a= 12 | b= 12 | c= 0 | s=  8 | OC= 1 | (ERR:          1)
                1025 || a= 12 | b= 13 | c= 0 | s=  9 | OC= 1 | (ERR:          1)
                1030 || a= 12 | b= 14 | c= 0 | s= 10 | OC= 1 | (ERR:          1)
                1035 || a= 12 | b= 15 | c= 0 | s= 11 | OC= 1 | (ERR:          1)
                1040 || a= 13 | b=  0 | c= 0 | s= 13 | OC= 0 | (ERR:          1)
                1045 || a= 13 | b=  1 | c= 0 | s= 14 | OC= 0 | (ERR:          1)
                1050 || a= 13 | b=  2 | c= 0 | s= 15 | OC= 0 | (ERR:          1)
                1055 || a= 13 | b=  3 | c= 0 | s=  0 | OC= 1 | (ERR:          1)
                1060 || a= 13 | b=  4 | c= 0 | s=  1 | OC= 1 | (ERR:          1)
                1065 || a= 13 | b=  5 | c= 0 | s=  2 | OC= 1 | (ERR:          1)
                1070 || a= 13 | b=  6 | c= 0 | s=  3 | OC= 1 | (ERR:          1)
                1075 || a= 13 | b=  7 | c= 0 | s=  4 | OC= 1 | (ERR:          1)
                1080 || a= 13 | b=  8 | c= 0 | s=  5 | OC= 1 | (ERR:          1)
                1085 || a= 13 | b=  9 | c= 0 | s=  6 | OC= 1 | (ERR:          1)
                1090 || a= 13 | b= 10 | c= 0 | s=  7 | OC= 1 | (ERR:          1)
                1095 || a= 13 | b= 11 | c= 0 | s=  8 | OC= 1 | (ERR:          1)
                1100 || a= 13 | b= 12 | c= 0 | s=  9 | OC= 1 | (ERR:          1)
                1105 || a= 13 | b= 13 | c= 0 | s= 10 | OC= 1 | (ERR:          1)
                1110 || a= 13 | b= 14 | c= 0 | s= 11 | OC= 1 | (ERR:          1)
                1115 || a= 13 | b= 15 | c= 0 | s= 12 | OC= 1 | (ERR:          1)
                1120 || a= 14 | b=  0 | c= 0 | s= 14 | OC= 0 | (ERR:          1)
                1125 || a= 14 | b=  1 | c= 0 | s= 15 | OC= 0 | (ERR:          1)
                1130 || a= 14 | b=  2 | c= 0 | s=  0 | OC= 1 | (ERR:          1)
                1135 || a= 14 | b=  3 | c= 0 | s=  1 | OC= 1 | (ERR:          1)
                1140 || a= 14 | b=  4 | c= 0 | s=  2 | OC= 1 | (ERR:          1)
                1145 || a= 14 | b=  5 | c= 0 | s=  3 | OC= 1 | (ERR:          1)
                1150 || a= 14 | b=  6 | c= 0 | s=  4 | OC= 1 | (ERR:          1)
                1155 || a= 14 | b=  7 | c= 0 | s=  5 | OC= 1 | (ERR:          1)
                1160 || a= 14 | b=  8 | c= 0 | s=  6 | OC= 1 | (ERR:          1)
                1165 || a= 14 | b=  9 | c= 0 | s=  7 | OC= 1 | (ERR:          1)
                1170 || a= 14 | b= 10 | c= 0 | s=  8 | OC= 1 | (ERR:          1)
                1175 || a= 14 | b= 11 | c= 0 | s=  9 | OC= 1 | (ERR:          1)
                1180 || a= 14 | b= 12 | c= 0 | s= 10 | OC= 1 | (ERR:          1)
                1185 || a= 14 | b= 13 | c= 0 | s= 11 | OC= 1 | (ERR:          1)
                1190 || a= 14 | b= 14 | c= 0 | s= 12 | OC= 1 | (ERR:          1)
                1195 || a= 14 | b= 15 | c= 0 | s= 13 | OC= 1 | (ERR:          1)
                1200 || a= 15 | b=  0 | c= 0 | s= 15 | OC= 0 | (ERR:          1)
                1205 || a= 15 | b=  1 | c= 0 | s=  0 | OC= 1 | (ERR:          1)
                1210 || a= 15 | b=  2 | c= 0 | s=  1 | OC= 1 | (ERR:          1)
                1215 || a= 15 | b=  3 | c= 0 | s=  2 | OC= 1 | (ERR:          1)
                1220 || a= 15 | b=  4 | c= 0 | s=  3 | OC= 1 | (ERR:          1)
                1225 || a= 15 | b=  5 | c= 0 | s=  4 | OC= 1 | (ERR:          1)
                1230 || a= 15 | b=  6 | c= 0 | s=  5 | OC= 1 | (ERR:          1)
                1235 || a= 15 | b=  7 | c= 0 | s=  6 | OC= 1 | (ERR:          1)
                1240 || a= 15 | b=  8 | c= 0 | s=  7 | OC= 1 | (ERR:          1)
                1245 || a= 15 | b=  9 | c= 0 | s=  8 | OC= 1 | (ERR:          1)
                1250 || a= 15 | b= 10 | c= 0 | s=  9 | OC= 1 | (ERR:          1)
                1255 || a= 15 | b= 11 | c= 0 | s= 10 | OC= 1 | (ERR:          1)
                1260 || a= 15 | b= 12 | c= 0 | s= 11 | OC= 1 | (ERR:          1)
                1265 || a= 15 | b= 13 | c= 0 | s= 12 | OC= 1 | (ERR:          1)
                1270 || a= 15 | b= 14 | c= 0 | s= 13 | OC= 1 | (ERR:          1)
                1275 || a= 15 | b= 15 | c= 0 | s= 14 | OC= 1 | (ERR:          1)
                1280 || a=  0 | b=  0 | c= 0 | s=  0 | OC= 0 | (ERR:          1)
OK!
Simulation complete via $finish(1) at time 1290 NS + 0
./test_bench_4bit.v:43 #5 $finish;
ncsim> exit
TOOL:	ncverilog	15.20-s039: Exiting on Oct 07, 2019 at 23:07:09 CST  (total: 00:00:00)
