before_mounth10/red_green_light/ltc.vcd
$date
    Oct 28, 2019  13:16:19
$end
$version
    TOOL:	ncsim	15.20-s039
$end
$timescale
    10 ps
$end

$scope module test_bench $end
$var parameter 32 !    SNT  $end
$var parameter 32 "    FIN  $end
$var parameter 32 #    FINSNT  $end
$var parameter 32 $    HCY  $end
$var parameter 32 %    UHC  $end
$var parameter 32 &    HOW_LONG_TO_N  $end
$var parameter 32 '    disableN  $end
$var integer  32 (    i  $end
$var reg       1 )    clk  $end
$var reg       1 *    N  $end
$var reg       1 +    rst  $end
$var wire      1 ,    Jy  $end
$var wire      1 -    Jg  $end
$var wire      1 .    Cy  $end
$var wire      1 /    Cg  $end
$var wire      1 0    Jr  $end
$var wire      1 1    Pr  $end
$var wire      1 2    Cr  $end
$var wire      1 3    Pg  $end

$scope module nl $end
$var wire      1 0    Jr  $end
$var wire      1 1    Pr  $end
$var wire      1 2    Cr  $end
$var wire      1 ,    Jy  $end
$var wire      1 .    Cy  $end
$var wire      1 -    Jg  $end
$var wire      1 3    Pg  $end
$var wire      1 /    Cg  $end
$var wire      1 4    clk  $end
$var wire      1 5    N  $end
$var wire      1 6    rst  $end
$var wire      1 7    J  $end
$var wire      1 8    P  $end
$var wire      1 9    C  $end
$var wire      1 :    Jyw  $end
$var wire      1 ;    Jgw  $end
$var wire      1 <    Cyw  $end
$var wire      1 =    Cgw  $end

$scope module nm $end
$var wire      1 7    J  $end
$var wire      1 8    P  $end
$var wire      1 9    C  $end
$var wire      1 4    clk  $end
$var wire      1 5    N  $end
$var wire      1 6    rst  $end
$var parameter 32 >    UCY  $end
$var parameter 32 ?    L  $end
$var parameter 32 @    S  $end
$var parameter 32 A    DEBUG_CLK  $end
$var parameter 32 B    DEBUG_VIEW_TIME  $end
$var parameter 32 C    DEBUG_PRINT_COUNTER  $end
$var parameter 32 D    DEBUG_ABLE_ERROR  $end
$var reg       1 E    Jr  $end
$var reg       1 F    Pr  $end
$var reg       1 G    Cr  $end
$var reg       1 H    Nr  $end
$var reg       1 I    Nd  $end
$var reg      12 J    counter [11:0] $end
$var reg      12 K    thcount [11:0] $end
$upscope $end


$scope module ny $end
$var wire      1 7    J  $end
$var wire      1 8    P  $end
$var wire      1 9    C  $end
$var wire      1 4    clk  $end
$var wire      1 5    N  $end
$var wire      1 6    rst  $end
$var wire      1 :    Jy  $end
$var wire      1 ;    Jg  $end
$var wire      1 <    Cy  $end
$var wire      1 =    Cg  $end
$var reg       1 L    Jyr  $end
$var reg       1 M    Jgr  $end
$var reg       1 N    Cyr  $end
$var reg       1 O    Cgr  $end
$var parameter 32 P    UCY  $end
$var parameter 32 Q    L  $end
$var parameter 32 R    S  $end
$var parameter 32 S    DEBUG_VIEW_TIME  $end
$var parameter 32 T    DEBUG_PRINT_COUNTER  $end
$var reg       1 U    SPnp  $end
$var reg       1 V    SPjc  $end
$var reg       1 W    sp  $end
$var reg       1 X    SPprev  $end
$var reg       1 Y    SPkill  $end
$var reg       1 Z    lck  $end
$var reg      12 [    counter [11:0] $end
$var reg      12 \    thcount [11:0] $end
$upscope $end

$upscope $end

$upscope $end

$enddefinitions $end
$dumpvars
b0 T
b0 S
b11 R
b1010 Q
b1 P
b1 D
b0 C
b0 B
b0 A
b11 @
b1010 ?
b1 >
b1 '
b0 &
b1111010000100100000 %
b1111010000100100000 $
b1011111010111100001000000000 #
b11001000 "
b11110100001001000000 !
b0 (
0)
0*
x+
x,
x-
x.
x/
x0
x1
x2
x3
04
05
x6
x7
x8
x9
x:
x;
x<
x=
xE
xF
xG
xH
xI
bx J
bx K
xL
xM
xN
xO
xU
xV
xW
xX
xY
xZ
bx [
bx \
$end
#100
1+
16
0L
0M
0N
0O
0U
0V
0W
0X
0Y
0Z
b0 [
b0 \
b0 J
b0 K
1E
0F
0G
0H
1I
1W
09
08
17
0=
0<
0;
0:
0,
0-
0.
0/
03
11
1M
b1 \
1V
10
12
1;
1-
00
#200
0+
06
0M
0V
0W
b0 \
1W
0;
0-
10
#50000000
1)
14
b1 K
1M
b1 \
1;
1-
00
#100000000
0)
04
1Y
#150000000
1)
14
b1 J
b0 K
b0 \
b1 \
#200000000
0)
04
0W
0Y
#250000000
1)
14
b1 K
b1 [
b0 \
#300000000
0)
04
#350000000
1)
14
b10 J
b0 K
b1 \
#400000000
0)
04
#450000000
1)
14
b1 K
b10 [
b0 \
#500000000
0)
04
#550000000
1)
14
b11 J
b0 K
b1 \
#600000000
0)
04
#650000000
1)
14
b1 K
b11 [
b0 \
#700000000
0)
04
#750000000
1)
14
b100 J
b0 K
b1 \
#800000000
0)
04
#850000000
1)
14
b1 K
b100 [
b0 \
#900000000
0)
04
#950000000
1)
14
b101 J
b0 K
b1 \
#1000000000
0)
04
#1050000000
1)
14
b1 K
b101 [
b0 \
#1100000000
0)
04
#1150000000
1)
14
b110 J
b0 K
b1 \
#1200000000
0)
04
#1250000000
1)
14
b1 K
b110 [
b0 \
#1300000000
0)
04
#1350000000
1)
14
b111 J
b0 K
b1 \
#1400000000
0)
04
#1450000000
1)
14
b1 K
b111 [
b0 \
#1500000000
0)
04
#1550000000
1)
14
b1000 J
b0 K
b1 \
#1600000000
0)
04
#1650000000
1)
14
b1 K
b1000 [
b0 \
#1700000000
0)
04
#1750000000
1)
14
b1001 J
b0 K
b1 \
#1800000000
0)
04
#1850000000
1)
14
b1 K
b1001 [
b0 \
#1900000000
0)
04
#1950000000
1)
14
b1010 J
b0 K
b1 \
#2000000000
0)
04
#2050000000
1)
14
b1 K
b1010 [
b0 \
#2100000000
0)
04
#2150000000
1)
14
b1011 J
b0 K
b0 [
0M
1L
1:
0;
0-
1,
#2200000000
0)
04
#2250000000
1)
14
b1 K
b1 \
#2300000000
0)
04
#2350000000
1)
14
b1100 J
b0 K
b1 [
b0 \
#2400000000
0)
04
#2450000000
1)
14
b1 K
b1 \
#2500000000
0)
04
#2550000000
1)
14
b1101 J
b0 K
b10 [
b0 \
#2600000000
0)
04
#2650000000
1)
14
b0 J
0E
1F
b1 \
18
07
13
01
1U
1W
#2700000000
0)
04
1Y
#2750000000
1)
14
b1 K
b0 [
b0 \
0L
0:
0,
10
#2800000000
0)
04
0W
0Y
#2850000000
1)
14
b1 J
b0 K
#2900000000
0)
04
#2950000000
1)
14
b1 K
#3000000000
0)
04
#3050000000
1)
14
b10 J
b0 K
#3100000000
0)
04
#3150000000
1)
14
b1 K
#3200000000
0)
04
#3250000000
1)
14
b11 J
b0 K
#3300000000
0)
04
#3350000000
1)
14
b1 K
#3400000000
0)
04
#3450000000
1)
14
b100 J
b0 K
#3500000000
0)
04
#3550000000
1)
14
b1 K
#3600000000
0)
04
#3650000000
1)
14
b101 J
b0 K
#3700000000
0)
04
#3750000000
1)
14
b1 K
#3800000000
0)
04
#3850000000
1)
14
b110 J
b0 K
#3900000000
0)
04
#3950000000
1)
14
b1 K
#4000000000
0)
04
#4050000000
1)
14
b111 J
b0 K
#4100000000
0)
04
#4150000000
1)
14
b0 J
1G
0F
08
19
03
11
b1 \
1V
1W
#4200000000
0)
04
1Y
#4250000000
1)
14
b1 K
b0 \
1O
b1 \
1=
1/
02
#4300000000
0)
04
0W
0Y
#4350000000
1)
14
b1 J
b0 K
b1 [
b0 \
#4400000000
0)
04
#4450000000
1)
14
b1 K
b1 \
#4500000000
0)
04
#4550000000
1)
14
b10 J
b0 K
b10 [
b0 \
#4600000000
0)
04
#4650000000
1)
14
b1 K
b1 \
#4700000000
0)
04
#4750000000
1)
14
b11 J
b0 K
b11 [
b0 \
#4800000000
0)
04
#4850000000
1)
14
b1 K
b1 \
#4900000000
0)
04
#4950000000
1)
14
b100 J
b0 K
b100 [
b0 \
#5000000000
0)
04
#5050000000
1)
14
b1 K
b1 \
#5100000000
0)
04
#5150000000
1)
14
b101 J
b0 K
b101 [
b0 \
#5200000000
0)
04
#5250000000
1)
14
b1 K
b1 \
#5300000000
0)
04
#5350000000
1)
14
b110 J
b0 K
b110 [
b0 \
#5400000000
0)
04
#5450000000
1)
14
b1 K
b1 \
#5500000000
0)
04
#5550000000
1)
14
b111 J
b0 K
b111 [
b0 \
#5600000000
0)
04
#5650000000
1)
14
b1 K
b1 \
#5700000000
0)
04
#5750000000
1)
14
b1000 J
b0 K
b1000 [
b0 \
#5800000000
0)
04
#5850000000
1)
14
b1 K
b1 \
#5900000000
0)
04
#5950000000
1)
14
b1001 J
b0 K
b1001 [
b0 \
#6000000000
0)
04
#6050000000
1)
14
b1 K
b1 \
#6100000000
0)
04
#6150000000
1)
14
b1010 J
b0 K
b1010 [
b0 \
#6200000000
0)
04
#6250000000
1)
14
b1 K
b1 \
#6300000000
0)
04
#6350000000
1)
14
b1011 J
b0 K
b1011 [
b0 \
#6400000000
0)
04
#6450000000
1)
14
b1 K
b1 \
#6500000000
0)
04
#6550000000
1)
14
b1100 J
b0 K
b1100 [
b0 \
#6600000000
0)
04
#6650000000
1)
14
b1 K
b1 \
#6700000000
0)
04
#6750000000
1)
14
b1101 J
b0 K
b1101 [
b0 \
#6800000000
0)
04
#6850000000
1)
14
b1 K
b0 [
0O
1N
1<
0=
0/
1.
#6900000000
0)
04
#6950000000
1)
14
b1110 J
b0 K
b1 \
#7000000000
0)
04
#7050000000
1)
14
b1 K
b1 [
b0 \
#7100000000
0)
04
#7150000000
1)
14
b1111 J
b0 K
b1 \
#7200000000
0)
04
#7250000000
1)
14
b1 K
b10 [
b0 \
#7300000000
0)
04
#7350000000
1)
14
b10000 J
b0 K
b1 \
#7400000000
0)
04
#7450000000
1)
14
b0 J
1E
0G
b11 [
b0 \
09
17
b1 \
0V
1W
#7500000000
0)
04
1Y
#7550000000
1)
14
b1 K
b0 [
b0 \
1M
0N
b1 \
0<
1;
1-
0.
00
12
#7600000000
0)
04
0W
0Y
#7650000000
1)
14
b1 J
b0 K
b1 [
b0 \
#7700000000
0)
04
#7750000000
1)
14
b1 K
b1 \
#7800000000
0)
04
#7850000000
1)
14
b10 J
b0 K
b10 [
b0 \
#7900000000
0)
04
#7950000000
1)
14
b1 K
b1 \
#8000000000
0)
04
#8050000000
1)
14
b11 J
b0 K
b11 [
b0 \
#8100000000
0)
04
#8150000000
1)
14
b1 K
b1 \
#8200000000
0)
04
#8250000000
1)
14
b100 J
b0 K
b100 [
b0 \
#8300000000
0)
04
#8350000000
1)
14
b1 K
b1 \
#8400000000
0)
04
#8450000000
1)
14
b101 J
b0 K
b101 [
b0 \
#8500000000
0)
04
#8550000000
1)
14
b1 K
b1 \
#8600000000
0)
04
#8650000000
1)
14
b110 J
b0 K
b110 [
b0 \
#8700000000
0)
04
#8750000000
1)
14
b1 K
b1 \
#8800000000
0)
04
#8850000000
1)
14
b111 J
b0 K
b111 [
b0 \
#8900000000
0)
04
#8950000000
1)
14
b1 K
b1 \
#9000000000
0)
04
#9050000000
1)
14
b1000 J
b0 K
b1000 [
b0 \
#9100000000
0)
04
#9150000000
1)
14
b1 K
b1 \
#9200000000
0)
04
#9250000000
1)
14
b1001 J
b0 K
b1001 [
b0 \
#9300000000
0)
04
#9350000000
1)
14
b1 K
b1 \
#9400000000
0)
04
#9450000000
1)
14
b1010 J
b0 K
b1010 [
b0 \
#9500000000
0)
04
#9550000000
1)
14
b1 K
b0 [
0M
1L
1:
0;
0-
1,
#9600000000
0)
04
#9650000000
1)
14
b1011 J
b0 K
b1 \
#9700000000
0)
04
#9750000000
1)
14
b1 K
b1 [
b0 \
#9800000000
0)
04
#9850000000
1)
14
b1100 J
b0 K
b1 \
#9900000000
0)
04
#9950000000
1)
14
b1 K
b10 [
b0 \
#10000000000
0)
04
#10050000000
1)
14
b1101 J
b0 K
b1 \
#10100000000
0)
04
#10150000000
1)
14
b0 J
0E
1F
b11 [
b0 \
18
07
13
01
0U
1W
#10200000000
0)
04
1Y
#10250000000
1)
14
b1 K
b0 [
0L
0:
0,
10
#10300000000
0)
04
0W
0Y
#10350000000
1)
14
b1 J
b0 K
#10400000000
0)
04
#10450000000
1)
14
b1 K
#10500000000
0)
04
#10550000000
1)
14
b10 J
b0 K
#10600000000
0)
04
#10650000000
1)
14
b1 K
#10700000000
0)
04
#10750000000
1)
14
b11 J
b0 K
#10800000000
0)
04
#10850000000
1)
14
b1 K
#10900000000
0)
04
#10950000000
1)
14
b100 J
b0 K
#11000000000
0)
04
#11050000000
1)
14
b1 K
#11100000000
0)
04
#11150000000
1)
14
b101 J
b0 K
#11200000000
0)
04
#11250000000
1)
14
b1 K
#11300000000
0)
04
#11350000000
1)
14
b110 J
b0 K
#11400000000
0)
04
#11450000000
1)
14
b1 K
#11500000000
0)
04
#11550000000
1)
14
b111 J
b0 K
#11600000000
0)
04
#11650000000
1)
14
b0 J
1G
0F
08
19
03
11
b1 \
1V
1W
#11700000000
0)
04
1Y
#11750000000
1)
14
b1 K
b0 \
1O
b1 \
1=
1/
02
#11800000000
0)
04
0W
0Y
#11850000000
1)
14
b1 J
b0 K
b1 [
b0 \
#11900000000
0)
04
#11950000000
1)
14
b1 K
b1 \
#12000000000
0)
04
#12050000000
1)
14
b10 J
b0 K
b10 [
b0 \
#12100000000
0)
04
#12150000000
1)
14
b1 K
b1 \
#12200000000
0)
04
#12250000000
1)
14
b11 J
b0 K
b11 [
b0 \
#12300000000
0)
04
#12350000000
1)
14
b1 K
b1 \
#12400000000
0)
04
#12450000000
1)
14
b100 J
b0 K
b100 [
b0 \
#12500000000
0)
04
#12550000000
1)
14
b1 K
b1 \
#12600000000
0)
04
#12650000000
1)
14
b101 J
b0 K
b101 [
b0 \
#12700000000
0)
04
#12750000000
1)
14
b1 K
b1 \
#12800000000
0)
04
#12850000000
1)
14
b110 J
b0 K
b110 [
b0 \
#12900000000
0)
04
#12950000000
1)
14
b1 K
b1 \
#13000000000
0)
04
#13050000000
1)
14
b111 J
b0 K
b111 [
b0 \
#13100000000
0)
04
#13150000000
1)
14
b1 K
b1 \
#13200000000
0)
04
#13250000000
1)
14
b1000 J
b0 K
b1000 [
b0 \
#13300000000
0)
04
#13350000000
1)
14
b1 K
b1 \
#13400000000
0)
04
#13450000000
1)
14
b1001 J
b0 K
b1001 [
b0 \
#13500000000
0)
04
#13550000000
1)
14
b1 K
b1 \
#13600000000
0)
04
#13650000000
1)
14
b1010 J
b0 K
b1010 [
b0 \
#13700000000
0)
04
#13750000000
1)
14
b1 K
b1 \
#13800000000
0)
04
#13850000000
1)
14
b1011 J
b0 K
b1011 [
b0 \
#13900000000
0)
04
#13950000000
1)
14
b1 K
b1 \
#14000000000
0)
04
#14050000000
1)
14
b1100 J
b0 K
b1100 [
b0 \
#14100000000
0)
04
#14150000000
1)
14
b1 K
b1 \
#14200000000
0)
04
#14250000000
1)
14
b1101 J
b0 K
b1101 [
b0 \
#14300000000
0)
04
#14350000000
1)
14
b1 K
b0 [
0O
1N
1<
0=
0/
1.
#14400000000
0)
04
#14450000000
1)
14
b1110 J
b0 K
b1 \
#14500000000
0)
04
#14550000000
1)
14
b1 K
b1 [
b0 \
#14600000000
0)
04
#14650000000
1)
14
b1111 J
b0 K
b1 \
#14700000000
0)
04
#14750000000
1)
14
b1 K
b10 [
b0 \
#14800000000
0)
04
#14850000000
1)
14
b10000 J
b0 K
b1 \
#14900000000
0)
04
#14950000000
1)
14
b0 J
1E
0G
b11 [
b0 \
09
17
b1 \
0V
1W
#15000000000
0)
04
1Y
#15050000000
1)
14
b1 K
b0 [
b0 \
1M
0N
b1 \
0<
1;
1-
0.
00
12
#15100000000
0)
04
0W
0Y
#15150000000
1)
14
b1 J
b0 K
b1 [
b0 \
#15200000000
0)
04
#15250000000
1)
14
b1 K
b1 \
#15300000000
0)
04
#15350000000
1)
14
b10 J
b0 K
b10 [
b0 \
#15400000000
0)
04
#15450000000
1)
14
b1 K
b1 \
#15500000000
0)
04
#15550000000
1)
14
b11 J
b0 K
b11 [
b0 \
#15600000000
0)
04
#15650000000
1)
14
b1 K
b1 \
#15700000000
0)
04
#15750000000
1)
14
b100 J
b0 K
b100 [
b0 \
#15800000000
0)
04
#15850000000
1)
14
b1 K
b1 \
#15900000000
0)
04
#15950000000
1)
14
b101 J
b0 K
b101 [
b0 \
#16000000000
0)
04
#16050000000
1)
14
b1 K
b1 \
#16100000000
0)
04
#16150000000
1)
14
b110 J
b0 K
b110 [
b0 \
#16200000000
0)
04
#16250000000
1)
14
b1 K
b1 \
#16300000000
0)
04
#16350000000
1)
14
b111 J
b0 K
b111 [
b0 \
#16400000000
0)
04
#16450000000
1)
14
b1 K
b1 \
#16500000000
0)
04
#16550000000
1)
14
b1000 J
b0 K
b1000 [
b0 \
#16600000000
0)
04
#16650000000
1)
14
b1 K
b1 \
#16700000000
0)
04
#16750000000
1)
14
b1001 J
b0 K
b1001 [
b0 \
#16800000000
0)
04
#16850000000
1)
14
b1 K
b1 \
#16900000000
0)
04
#16950000000
1)
14
b1010 J
b0 K
b1010 [
b0 \
#17000000000
0)
04
#17050000000
1)
14
b1 K
b0 [
0M
1L
1:
0;
0-
1,
#17100000000
0)
04
#17150000000
1)
14
b1011 J
b0 K
b1 \
#17200000000
0)
04
#17250000000
1)
14
b1 K
b1 [
b0 \
#17300000000
0)
04
#17350000000
1)
14
b1100 J
b0 K
b1 \
#17400000000
0)
04
#17450000000
1)
14
b1 K
b10 [
b0 \
#17500000000
0)
04
#17550000000
1)
14
b1101 J
b0 K
b1 \
#17600000000
0)
04
#17650000000
1)
14
b0 J
0E
1F
b11 [
b0 \
18
07
13
01
1U
1W
#17700000000
0)
04
1Y
#17750000000
1)
14
b1 K
b0 [
0L
0:
0,
10
#17800000000
0)
04
0W
0Y
#17850000000
1)
14
b1 J
b0 K
#17900000000
0)
04
#17950000000
1)
14
b1 K
#18000000000
0)
04
#18050000000
1)
14
b10 J
b0 K
#18100000000
0)
04
#18150000000
1)
14
b1 K
#18200000000
0)
04
#18250000000
1)
14
b11 J
b0 K
#18300000000
0)
04
#18350000000
1)
14
b1 K
#18400000000
0)
04
#18450000000
1)
14
b100 J
b0 K
#18500000000
0)
04
#18550000000
1)
14
b1 K
#18600000000
0)
04
#18650000000
1)
14
b101 J
b0 K
#18700000000
0)
04
#18750000000
1)
14
b1 K
#18800000000
0)
04
#18850000000
1)
14
b110 J
b0 K
#18900000000
0)
04
#18950000000
1)
14
b1 K
#19000000000
0)
04
#19050000000
1)
14
b111 J
b0 K
#19100000000
0)
04
#19150000000
1)
14
b0 J
1G
0F
08
19
03
11
b1 \
1V
1W
#19200000000
0)
04
1Y
#19250000000
1)
14
b1 K
b0 \
1O
b1 \
1=
1/
02
#19300000000
0)
04
0W
0Y
#19350000000
1)
14
b1 J
b0 K
b1 [
b0 \
#19400000000
0)
04
#19450000000
1)
14
b1 K
b1 \
#19500000000
0)
04
#19550000000
1)
14
b10 J
b0 K
b10 [
b0 \
#19600000000
0)
04
#19650000000
1)
14
b1 K
b1 \
#19700000000
0)
04
#19750000000
1)
14
b11 J
b0 K
b11 [
b0 \
#19800000000
0)
04
#19850000000
1)
14
b1 K
b1 \
#19900000000
0)
04
#19950000000
1)
14
b100 J
b0 K
b100 [
b0 \
